…
#Using Mutate to Create a categorical variable for States relation to the Mean Hate Crime Rate
final <- final %>%
  mutate(Hateful = case_when(HateCrimesPerCapita > mean(HateCrimesPerCapita) ~ 'Above',
                             HateCrimesPerCapita < mean(HateCrimesPerCapita) ~ 'Below'))

#Using Select and Arrange to Order by Reported Hate Crime Rate
final %>%
  select(State, HateCrimesPerCapita) %>%
  arrange(desc(HateCrimesPerCapita))
```

    ## # A tibble: 50 x 2
    ##    State         HateCrimesPerCapita
    ##    <chr>                       <dbl>
    ##  1 Washington              0.0000714
    ##  2 New Mexico              0.0000610
    ##  3 Massachusetts           0.0000573
    ##  4 New Jersey              0.0000546
    ##  5 Vermont                 0.0000525
    ##  6 Michigan                0.0000435
    ##  7 Oregon                  0.0000431
    ##  8 Hawaii                  0.0000421
    ##  9 Ohio                    0.0000402
    ## 10 Colorado                0.0000368
    ## # ... with 40 more rows
…
            ))
```

    ## Joining, by = c("Data", "N", "Min", "Max", "Mean", "SD", "Variance", "Hateful")

``` r
#Finished table containing all numerical statistics for each numeric variable
allStats
```

    ## # A tibble: 21 x 8
    ##    Data                       N     Min     Max    Mean      SD Variance Hateful
    ##    <chr>                  <int>   <dbl>   <dbl>   <dbl>   <dbl>    <dbl> <chr>  
    ##  1 Reported Hate Crimes      49 5   e+0 1.01e+3 1.42e+2 2.01e+2 4.05e+ 4 <NA>   
    ##  2 Grouped Reported Hate~    20 1.8 e+1 1.01e+3 2.56e+2 2.62e+2 6.84e+ 4 Above  
    ##  3 Grouped Reported Hate~    29 5   e+0 4.56e+2 6.37e+1 8.58e+1 7.35e+ 3 Below  
    ##  4 Hate Crime Rate           49 2.98e-6 7.14e-5 2.34e-5 1.66e-5 2.74e-10 <NA>   
    ##  5 Grouped Hate Crime Ra~    20 2.36e-5 7.14e-5 3.91e-5 1.39e-5 1.95e-10 Above  
    ##  6 Grouped Hate Crime Ra~    29 2.98e-6 2.26e-5 1.25e-5 6.08e-6 3.70e-11 Below  
    ##  7 Hate Crime Population~    49 5.13e+5 3.95e+7 6.21e+6 7.43e+6 5.52e+13 <NA>   
    ##  8 Grouped Hate Crime Po~    20 6.29e+5 3.95e+7 7.00e+6 8.92e+6 7.96e+13 Above  
    ##  9 Grouped Hate Crime Po~    29 5.13e+5 2.89e+7 5.67e+6 6.31e+6 3.98e+13 Below  
    ## 10 Agencies Reporting Ha~    49 1   e+0 2.08e+2 4.33e+1 5.16e+1 2.66e+ 3 <NA>   
    ## # ... with 11 more rows
…
